<?xml version="1.0" encoding="utf-8"?>
<svg version="1.1"
	xmlns="http://www.w3.org/2000/svg"
	xmlns:xlink="http://www.w3.org/1999/xlink" x="0px" y="0px" viewBox="0 0 30 15" style="enable-background:new 0 0 30 15;" xml:space="preserve">
	<path d="M30,7.5l-7.5,7.4C22.3,15,22,15,21.8,14.8c-0.1-0.2-0.1-0.4,0-0.6l6.8-6.6l-6.8-6.6c-0.2-0.2-0.2-0.5,0-0.7
		C22,0,22.3,0,22.5,0.1c0,0,0,0,0,0L30,7.5z"/>
	<path d="M29.6,7.5c0,0.3-0.2,0.5-0.5,0.5H0.5C0.2,8,0,7.8,0,7.5S0.2,7,0.5,7h28.6C29.4,7,29.6,7.2,29.6,7.5z"/>
</svg>
