<?xml version="1.0" encoding="utf-8"?>
<svg version="1.1"
	xmlns="http://www.w3.org/2000/svg"
	xmlns:xlink="http://www.w3.org/1999/xlink" x="0px" y="0px" viewBox="0 0 30 15" style="enable-background:new 0 0 30 15;" xml:space="preserve">
	<path style="fill:#ffffff;" d="M0,7.5l7.5-7.4C7.7-0.1,8,0,8.2,0.2c0.1,0.2,0.1,0.4,0,0.6L1.4,7.5l6.8,6.6c0.2,0.2,0.2,0.5,0,0.7C8,15,7.7,15,7.5,14.8
		c0,0,0,0,0,0L0,7.5z"/>
	<path style="fill:#ffffff;" d="M0.4,7.5C0.4,7.2,0.6,7,0.9,7h28.6C29.8,7,30,7.2,30,7.5S29.8,8,29.5,8H0.9C0.6,8,0.4,7.7,0.4,7.5z"/>
</svg>
